[{  
    "userID":1,
    "email": "user1@example.com",
    "password": "loh1",
    "firstName": "John",
    "lastName": "Doe"
  },
  {
    "userID":2,
    "email": "user2@example.com",
    "password": "loh1",
    "firstName": "Jane",
    "lastName": "Smith"
  }]